^D:\DOCUMENTS\OOP_MJ\VJEZBA 3\ZADATAK 1\ZADATAK 1\DEBUG\PCH.OBJ|D:\DOCUMENTS\OOP_MJ\VJEZBA 3\ZADATAK 1\ZADATAK 1\DEBUG\ZADATAK 1.OBJ
D:\DOCUMENTS\OOP_MJ\VJEZBA 3\ZADATAK 1\DEBUG\ZADATAK 1.EXE
D:\DOCUMENTS\OOP_MJ\VJEZBA 3\ZADATAK 1\DEBUG\ZADATAK 1.ILK
D:\DOCUMENTS\OOP_MJ\VJEZBA 3\ZADATAK 1\DEBUG\ZADATAK 1.PDB
