^D:\DOCUMENTS\OOP_MJ\VJEZBA 6\VJEZBA 6\PCH.CPP
/c /ZI /JMC /nologo /W3 /WX- /diagnostics:classic /sdl /Od /Oy- /D WIN32 /D _DEBUG /D _CONSOLE /D _UNICODE /D UNICODE /Gm- /EHsc /RTC1 /MDd /GS /fp:precise /permissive- /Zc:wchar_t /Zc:forScope /Zc:inline /Yc"pch.h" /Fp"DEBUG\VJEZBA 6.PCH" /Fo"DEBUG\\" /Fd"DEBUG\VC141.PDB" /Gd /TP /analyze- /FC D:\DOCUMENTS\OOP_MJ\VJEZBA 6\VJEZBA 6\PCH.CPP
^D:\DOCUMENTS\OOP_MJ\VJEZBA 6\VJEZBA 6\VJEZBA 6.CPP
/c /ZI /JMC /nologo /W3 /WX- /diagnostics:classic /sdl /Od /Oy- /D WIN32 /D _DEBUG /D _CONSOLE /D _UNICODE /D UNICODE /Gm- /EHsc /RTC1 /MDd /GS /fp:precise /permissive- /Zc:wchar_t /Zc:forScope /Zc:inline /Yu"pch.h" /Fp"DEBUG\VJEZBA 6.PCH" /Fo"DEBUG\\" /Fd"DEBUG\VC141.PDB" /Gd /TP /analyze- /FC D:\DOCUMENTS\OOP_MJ\VJEZBA 6\VJEZBA 6\VJEZBA 6.CPP
^D:\DOCUMENTS\OOP_MJ\VJEZBA 6\VJEZBA 6\ARRAY.CPP
/c /ZI /JMC /nologo /W3 /WX- /diagnostics:classic /sdl /Od /Oy- /D WIN32 /D _DEBUG /D _CONSOLE /D _UNICODE /D UNICODE /Gm- /EHsc /RTC1 /MDd /GS /fp:precise /permissive- /Zc:wchar_t /Zc:forScope /Zc:inline /Yu"pch.h" /Fp"DEBUG\VJEZBA 6.PCH" /Fo"DEBUG\\" /Fd"DEBUG\VC141.PDB" /Gd /TP /analyze- /FC D:\DOCUMENTS\OOP_MJ\VJEZBA 6\VJEZBA 6\ARRAY.CPP
^D:\DOCUMENTS\OOP_MJ\OOP_VJEZBE\VJEZBA 6\VJEZBA 6\PCH.CPP
/c /ZI /JMC /nologo /W3 /WX- /diagnostics:classic /sdl /Od /Oy- /D WIN32 /D _DEBUG /D _CONSOLE /D _UNICODE /D UNICODE /Gm- /EHsc /RTC1 /MDd /GS /fp:precise /permissive- /Zc:wchar_t /Zc:forScope /Zc:inline /Yc"pch.h" /Fp"DEBUG\VJEZBA 6.PCH" /Fo"DEBUG\\" /Fd"DEBUG\VC141.PDB" /Gd /TP /analyze- /FC D:\DOCUMENTS\OOP_MJ\OOP_VJEZBE\VJEZBA 6\VJEZBA 6\PCH.CPP
^D:\DOCUMENTS\OOP_MJ\OOP_VJEZBE\VJEZBA 6\VJEZBA 6\ARRAY.CPP
/c /ZI /JMC /nologo /W3 /WX- /diagnostics:classic /sdl /Od /Oy- /D WIN32 /D _DEBUG /D _CONSOLE /D _UNICODE /D UNICODE /Gm- /EHsc /RTC1 /MDd /GS /fp:precise /permissive- /Zc:wchar_t /Zc:forScope /Zc:inline /Yu"pch.h" /Fp"DEBUG\VJEZBA 6.PCH" /Fo"DEBUG\\" /Fd"DEBUG\VC141.PDB" /Gd /TP /analyze- /FC D:\DOCUMENTS\OOP_MJ\OOP_VJEZBE\VJEZBA 6\VJEZBA 6\ARRAY.CPP
^D:\DOCUMENTS\OOP_MJ\OOP_VJEZBE\VJEZBA 6\VJEZBA 6\VJEZBA 6.CPP
/c /ZI /JMC /nologo /W3 /WX- /diagnostics:classic /sdl /Od /Oy- /D WIN32 /D _DEBUG /D _CONSOLE /D _UNICODE /D UNICODE /Gm- /EHsc /RTC1 /MDd /GS /fp:precise /permissive- /Zc:wchar_t /Zc:forScope /Zc:inline /Yu"pch.h" /Fp"DEBUG\VJEZBA 6.PCH" /Fo"DEBUG\\" /Fd"DEBUG\VC141.PDB" /Gd /TP /analyze- /FC D:\DOCUMENTS\OOP_MJ\OOP_VJEZBE\VJEZBA 6\VJEZBA 6\VJEZBA 6.CPP
