^D:\DOCUMENTS\OOP_MJ\VJEZBA 6\VJEZBA 6\DEBUG\ARRAY.OBJ|D:\DOCUMENTS\OOP_MJ\VJEZBA 6\VJEZBA 6\DEBUG\PCH.OBJ|D:\DOCUMENTS\OOP_MJ\VJEZBA 6\VJEZBA 6\DEBUG\VJEZBA 6.OBJ
D:\DOCUMENTS\OOP_MJ\VJEZBA 6\VJEZBA 6\DEBUG\VJEZBA 6.ILK
D:\DOCUMENTS\OOP_MJ\VJEZBA 6\VJEZBA 6\DEBUG\VJEZBA 6.EXE
D:\DOCUMENTS\OOP_MJ\VJEZBA 6\VJEZBA 6\DEBUG\VJEZBA 6.PDB
^D:\DOCUMENTS\OOP_MJ\OOP_VJEZBE\VJEZBA 6\VJEZBA 6\DEBUG\ARRAY.OBJ|D:\DOCUMENTS\OOP_MJ\OOP_VJEZBE\VJEZBA 6\VJEZBA 6\DEBUG\PCH.OBJ|D:\DOCUMENTS\OOP_MJ\OOP_VJEZBE\VJEZBA 6\VJEZBA 6\DEBUG\VJEZBA 6.OBJ
D:\DOCUMENTS\OOP_MJ\OOP_VJEZBE\VJEZBA 6\VJEZBA 6\DEBUG\VJEZBA 6.EXE
D:\DOCUMENTS\OOP_MJ\OOP_VJEZBE\VJEZBA 6\VJEZBA 6\DEBUG\VJEZBA 6.ILK
D:\DOCUMENTS\OOP_MJ\OOP_VJEZBE\VJEZBA 6\VJEZBA 6\DEBUG\VJEZBA 6.PDB
