^C:\USERS\MATEO\DOCUMENTS\OOP VJEZBE\OOP_VJEZBE\VJEZBA 4\ZADATAK 3\PCH.CPP
/c /ZI /JMC /nologo /W3 /WX- /diagnostics:classic /sdl /Od /D _DEBUG /D _CONSOLE /D _UNICODE /D UNICODE /Gm- /EHsc /RTC1 /MDd /GS /fp:precise /permissive- /Zc:wchar_t /Zc:forScope /Zc:inline /Yc"pch.h" /Fp"X64\DEBUG\ZADATAK 3.PCH" /Fo"X64\DEBUG\\" /Fd"X64\DEBUG\VC141.PDB" /Gd /TP /FC C:\USERS\MATEO\DOCUMENTS\OOP VJEZBE\OOP_VJEZBE\VJEZBA 4\ZADATAK 3\PCH.CPP
^C:\USERS\MATEO\DOCUMENTS\OOP VJEZBE\OOP_VJEZBE\VJEZBA 4\ZADATAK 1\ZADATAK 1\TOCKA.CPP
/c /ZI /JMC /nologo /W3 /WX- /diagnostics:classic /sdl /Od /D _DEBUG /D _CONSOLE /D _UNICODE /D UNICODE /Gm- /EHsc /RTC1 /MDd /GS /fp:precise /permissive- /Zc:wchar_t /Zc:forScope /Zc:inline /Yu"pch.h" /Fp"X64\DEBUG\ZADATAK 3.PCH" /Fo"X64\DEBUG\\" /Fd"X64\DEBUG\VC141.PDB" /Gd /TP /FC C:\USERS\MATEO\DOCUMENTS\OOP VJEZBE\OOP_VJEZBE\VJEZBA 4\ZADATAK 1\ZADATAK 1\TOCKA.CPP
^C:\USERS\MATEO\DOCUMENTS\OOP VJEZBE\OOP_VJEZBE\VJEZBA 4\ZADATAK 2\ZADATAK 2\ORUZJE.CPP
/c /ZI /JMC /nologo /W3 /WX- /diagnostics:classic /sdl /Od /D _DEBUG /D _CONSOLE /D _UNICODE /D UNICODE /Gm- /EHsc /RTC1 /MDd /GS /fp:precise /permissive- /Zc:wchar_t /Zc:forScope /Zc:inline /Yu"pch.h" /Fp"X64\DEBUG\ZADATAK 3.PCH" /Fo"X64\DEBUG\\" /Fd"X64\DEBUG\VC141.PDB" /Gd /TP /FC C:\USERS\MATEO\DOCUMENTS\OOP VJEZBE\OOP_VJEZBE\VJEZBA 4\ZADATAK 2\ZADATAK 2\ORUZJE.CPP
^C:\USERS\MATEO\DOCUMENTS\OOP VJEZBE\OOP_VJEZBE\VJEZBA 4\ZADATAK 3\ZADATAK 3.CPP
/c /ZI /JMC /nologo /W3 /WX- /diagnostics:classic /sdl /Od /D _DEBUG /D _CONSOLE /D _UNICODE /D UNICODE /Gm- /EHsc /RTC1 /MDd /GS /fp:precise /permissive- /Zc:wchar_t /Zc:forScope /Zc:inline /Yu"pch.h" /Fp"X64\DEBUG\ZADATAK 3.PCH" /Fo"X64\DEBUG\\" /Fd"X64\DEBUG\VC141.PDB" /Gd /TP /FC C:\USERS\MATEO\DOCUMENTS\OOP VJEZBE\OOP_VJEZBE\VJEZBA 4\ZADATAK 3\ZADATAK 3.CPP
^C:\USERS\MATEO\DOCUMENTS\OOP VJEZBE\OOP_VJEZBE\VJEZBA 4\ZADATAK 3\META.CPP
/c /ZI /JMC /nologo /W3 /WX- /diagnostics:classic /sdl /Od /D _DEBUG /D _CONSOLE /D _UNICODE /D UNICODE /Gm- /EHsc /RTC1 /MDd /GS /fp:precise /permissive- /Zc:wchar_t /Zc:forScope /Zc:inline /Yu"pch.h" /Fp"X64\DEBUG\ZADATAK 3.PCH" /Fo"X64\DEBUG\\" /Fd"X64\DEBUG\VC141.PDB" /Gd /TP /FC C:\USERS\MATEO\DOCUMENTS\OOP VJEZBE\OOP_VJEZBE\VJEZBA 4\ZADATAK 3\META.CPP
