^D:\DOCUMENTS\OOP_MJ\VJEZBA 4\ZADATAK 2\ZADATAK 2\DEBUG\PCH.OBJ|D:\DOCUMENTS\OOP_MJ\VJEZBA 4\ZADATAK 2\ZADATAK 2\DEBUG\ZADATAK 2.OBJ
D:\DOCUMENTS\OOP_MJ\VJEZBA 4\ZADATAK 2\DEBUG\ZADATAK 2.EXE
D:\DOCUMENTS\OOP_MJ\VJEZBA 4\ZADATAK 2\DEBUG\ZADATAK 2.ILK
D:\DOCUMENTS\OOP_MJ\VJEZBA 4\ZADATAK 2\DEBUG\ZADATAK 2.PDB
^C:\USERS\MATEO\DOCUMENTS\OOP VJEZBE\OOP_VJEZBE\VJEZBA 4\ZADATAK 2\ZADATAK 2\DEBUG\ORUZJE.OBJ|C:\USERS\MATEO\DOCUMENTS\OOP VJEZBE\OOP_VJEZBE\VJEZBA 4\ZADATAK 2\ZADATAK 2\DEBUG\PCH.OBJ|C:\USERS\MATEO\DOCUMENTS\OOP VJEZBE\OOP_VJEZBE\VJEZBA 4\ZADATAK 2\ZADATAK 2\DEBUG\TOCKA.OBJ|C:\USERS\MATEO\DOCUMENTS\OOP VJEZBE\OOP_VJEZBE\VJEZBA 4\ZADATAK 2\ZADATAK 2\DEBUG\ZADATAK 2.OBJ
C:\USERS\MATEO\DOCUMENTS\OOP VJEZBE\OOP_VJEZBE\VJEZBA 4\ZADATAK 2\DEBUG\ZADATAK 2.ILK
C:\USERS\MATEO\DOCUMENTS\OOP VJEZBE\OOP_VJEZBE\VJEZBA 4\ZADATAK 2\DEBUG\ZADATAK 2.EXE
C:\USERS\MATEO\DOCUMENTS\OOP VJEZBE\OOP_VJEZBE\VJEZBA 4\ZADATAK 2\DEBUG\ZADATAK 2.PDB
