^C:\USERS\MATEO\DOCUMENTS\OOP VJEZBE\VJEZBA 3\ZADATAK 5\PCH.CPP
C:\USERS\MATEO\DOCUMENTS\OOP VJEZBE\VJEZBA 3\ZADATAK 5\DEBUG\ZADATAK 5.PCH
C:\USERS\MATEO\DOCUMENTS\OOP VJEZBE\VJEZBA 3\ZADATAK 5\DEBUG\VC141.PDB
C:\USERS\MATEO\DOCUMENTS\OOP VJEZBE\VJEZBA 3\ZADATAK 5\DEBUG\VC141.IDB
C:\USERS\MATEO\DOCUMENTS\OOP VJEZBE\VJEZBA 3\ZADATAK 5\DEBUG\PCH.OBJ
^C:\USERS\MATEO\DOCUMENTS\OOP VJEZBE\VJEZBA 3\ZADATAK 5\ZADATAK 5.CPP
C:\USERS\MATEO\DOCUMENTS\OOP VJEZBE\VJEZBA 3\ZADATAK 5\DEBUG\VC141.PDB
C:\USERS\MATEO\DOCUMENTS\OOP VJEZBE\VJEZBA 3\ZADATAK 5\DEBUG\VC141.IDB
C:\USERS\MATEO\DOCUMENTS\OOP VJEZBE\VJEZBA 3\ZADATAK 5\DEBUG\ZADATAK 5.OBJ
