^C:\USERS\MATEO\DOCUMENTS\OOP VJEZBE\VJEZBA 3\ZADATAK 5\DEBUG\PCH.OBJ|C:\USERS\MATEO\DOCUMENTS\OOP VJEZBE\VJEZBA 3\ZADATAK 5\DEBUG\ZADATAK 5.OBJ
C:\USERS\MATEO\DOCUMENTS\OOP VJEZBE\VJEZBA 3\ZADATAK 5\DEBUG\ZADATAK 5.EXE
C:\USERS\MATEO\DOCUMENTS\OOP VJEZBE\VJEZBA 3\ZADATAK 5\DEBUG\ZADATAK 5.ILK
C:\USERS\MATEO\DOCUMENTS\OOP VJEZBE\VJEZBA 3\ZADATAK 5\DEBUG\ZADATAK 5.PDB
