^D:\DOCUMENTS\OOP_MJ\VJEZBA 11\PCH.CPP
D:\DOCUMENTS\OOP_MJ\VJEZBA 11\DEBUG\VJEZBA 11.PCH
D:\DOCUMENTS\OOP_MJ\VJEZBA 11\DEBUG\VC141.PDB
D:\DOCUMENTS\OOP_MJ\VJEZBA 11\DEBUG\VC141.IDB
D:\DOCUMENTS\OOP_MJ\VJEZBA 11\DEBUG\PCH.OBJ
^D:\DOCUMENTS\OOP_MJ\VJEZBA 11\VJEZBA 11.CPP
D:\DOCUMENTS\OOP_MJ\VJEZBA 11\DEBUG\VC141.PDB
D:\DOCUMENTS\OOP_MJ\VJEZBA 11\DEBUG\VC141.IDB
D:\DOCUMENTS\OOP_MJ\VJEZBA 11\DEBUG\VJEZBA 11.OBJ
