^D:\DOCUMENTS\OOP_MJ\VJEZBA 11\DEBUG\PCH.OBJ|D:\DOCUMENTS\OOP_MJ\VJEZBA 11\DEBUG\VJEZBA 11.OBJ
D:\DOCUMENTS\OOP_MJ\VJEZBA 11\DEBUG\VJEZBA 11.EXE
D:\DOCUMENTS\OOP_MJ\VJEZBA 11\DEBUG\VJEZBA 11.ILK
D:\DOCUMENTS\OOP_MJ\VJEZBA 11\DEBUG\VJEZBA 11.PDB
