^C:\USERS\MATEO\DOCUMENTS\OOP VJEZBE\VJEZBA 3\ZADATAK 4\PCH.CPP
C:\USERS\MATEO\DOCUMENTS\OOP VJEZBE\VJEZBA 3\ZADATAK 4\DEBUG\ZADATAK 4.PCH
C:\USERS\MATEO\DOCUMENTS\OOP VJEZBE\VJEZBA 3\ZADATAK 4\DEBUG\VC141.PDB
C:\USERS\MATEO\DOCUMENTS\OOP VJEZBE\VJEZBA 3\ZADATAK 4\DEBUG\VC141.IDB
C:\USERS\MATEO\DOCUMENTS\OOP VJEZBE\VJEZBA 3\ZADATAK 4\DEBUG\PCH.OBJ
^C:\USERS\MATEO\DOCUMENTS\OOP VJEZBE\VJEZBA 3\ZADATAK 4\ZADATAK 4.CPP
C:\USERS\MATEO\DOCUMENTS\OOP VJEZBE\VJEZBA 3\ZADATAK 4\DEBUG\VC141.PDB
C:\USERS\MATEO\DOCUMENTS\OOP VJEZBE\VJEZBA 3\ZADATAK 4\DEBUG\VC141.IDB
C:\USERS\MATEO\DOCUMENTS\OOP VJEZBE\VJEZBA 3\ZADATAK 4\DEBUG\ZADATAK 4.OBJ
