^C:\USERS\MATEO\DOCUMENTS\OOP VJEZBE\VJEZBA 4\ZADATAK 4\PCH.CPP
C:\USERS\MATEO\DOCUMENTS\OOP VJEZBE\VJEZBA 4\ZADATAK 4\DEBUG\ZADATAK 4.PCH
C:\USERS\MATEO\DOCUMENTS\OOP VJEZBE\VJEZBA 4\ZADATAK 4\DEBUG\VC141.PDB
C:\USERS\MATEO\DOCUMENTS\OOP VJEZBE\VJEZBA 4\ZADATAK 4\DEBUG\VC141.IDB
C:\USERS\MATEO\DOCUMENTS\OOP VJEZBE\VJEZBA 4\ZADATAK 4\DEBUG\PCH.OBJ
^C:\USERS\MATEO\DOCUMENTS\OOP VJEZBE\OOP_VJEZBE\VJEZBA 4\ZADATAK 4\PCH.CPP
C:\USERS\MATEO\DOCUMENTS\OOP VJEZBE\OOP_VJEZBE\VJEZBA 4\ZADATAK 4\DEBUG\ZADATAK 4.PCH
C:\USERS\MATEO\DOCUMENTS\OOP VJEZBE\OOP_VJEZBE\VJEZBA 4\ZADATAK 4\DEBUG\VC141.PDB
C:\USERS\MATEO\DOCUMENTS\OOP VJEZBE\OOP_VJEZBE\VJEZBA 4\ZADATAK 4\DEBUG\VC141.IDB
C:\USERS\MATEO\DOCUMENTS\OOP VJEZBE\OOP_VJEZBE\VJEZBA 4\ZADATAK 4\DEBUG\PCH.OBJ
^C:\USERS\MATEO\DOCUMENTS\OOP VJEZBE\OOP_VJEZBE\VJEZBA 4\ZADATAK 1\ZADATAK 1\TOCKA.CPP|C:\USERS\MATEO\DOCUMENTS\OOP VJEZBE\OOP_VJEZBE\VJEZBA 4\ZADATAK 4\ZADATAK 4.CPP
C:\USERS\MATEO\DOCUMENTS\OOP VJEZBE\OOP_VJEZBE\VJEZBA 4\ZADATAK 4\DEBUG\VC141.PDB
C:\USERS\MATEO\DOCUMENTS\OOP VJEZBE\OOP_VJEZBE\VJEZBA 4\ZADATAK 4\DEBUG\VC141.IDB
C:\USERS\MATEO\DOCUMENTS\OOP VJEZBE\OOP_VJEZBE\VJEZBA 4\ZADATAK 4\DEBUG\TOCKA.OBJ
^C:\USERS\MATEO\DOCUMENTS\OOP VJEZBE\OOP_VJEZBE\VJEZBA 4\ZADATAK 1\ZADATAK 1\TOCKA.CPP
C:\USERS\MATEO\DOCUMENTS\OOP VJEZBE\OOP_VJEZBE\VJEZBA 4\ZADATAK 4\DEBUG\TOCKA.OBJ
^C:\USERS\MATEO\DOCUMENTS\OOP VJEZBE\OOP_VJEZBE\VJEZBA 4\ZADATAK 2\ZADATAK 2\ORUZJE.CPP|C:\USERS\MATEO\DOCUMENTS\OOP VJEZBE\OOP_VJEZBE\VJEZBA 4\ZADATAK 3\META.CPP|C:\USERS\MATEO\DOCUMENTS\OOP VJEZBE\OOP_VJEZBE\VJEZBA 4\ZADATAK 4\ZADATAK 4.CPP
C:\USERS\MATEO\DOCUMENTS\OOP VJEZBE\OOP_VJEZBE\VJEZBA 4\ZADATAK 4\DEBUG\VC141.PDB
C:\USERS\MATEO\DOCUMENTS\OOP VJEZBE\OOP_VJEZBE\VJEZBA 4\ZADATAK 4\DEBUG\VC141.IDB
C:\USERS\MATEO\DOCUMENTS\OOP VJEZBE\OOP_VJEZBE\VJEZBA 4\ZADATAK 4\DEBUG\ORUZJE.OBJ
^C:\USERS\MATEO\DOCUMENTS\OOP VJEZBE\OOP_VJEZBE\VJEZBA 4\ZADATAK 2\ZADATAK 2\ORUZJE.CPP
C:\USERS\MATEO\DOCUMENTS\OOP VJEZBE\OOP_VJEZBE\VJEZBA 4\ZADATAK 4\DEBUG\ORUZJE.OBJ
^C:\USERS\MATEO\DOCUMENTS\OOP VJEZBE\OOP_VJEZBE\VJEZBA 4\ZADATAK 3\META.CPP|C:\USERS\MATEO\DOCUMENTS\OOP VJEZBE\OOP_VJEZBE\VJEZBA 4\ZADATAK 4\ZADATAK 4.CPP
C:\USERS\MATEO\DOCUMENTS\OOP VJEZBE\OOP_VJEZBE\VJEZBA 4\ZADATAK 4\DEBUG\VC141.PDB
C:\USERS\MATEO\DOCUMENTS\OOP VJEZBE\OOP_VJEZBE\VJEZBA 4\ZADATAK 4\DEBUG\VC141.IDB
C:\USERS\MATEO\DOCUMENTS\OOP VJEZBE\OOP_VJEZBE\VJEZBA 4\ZADATAK 4\DEBUG\ZADATAK 4.OBJ
C:\USERS\MATEO\DOCUMENTS\OOP VJEZBE\OOP_VJEZBE\VJEZBA 4\ZADATAK 4\DEBUG\META.OBJ
^C:\USERS\MATEO\DOCUMENTS\OOP VJEZBE\OOP_VJEZBE\VJEZBA 4\ZADATAK 3\META.CPP
C:\USERS\MATEO\DOCUMENTS\OOP VJEZBE\OOP_VJEZBE\VJEZBA 4\ZADATAK 4\DEBUG\VC141.PDB
^C:\USERS\MATEO\DOCUMENTS\OOP VJEZBE\OOP_VJEZBE\VJEZBA 4\ZADATAK 4\ZADATAK 4.CPP
C:\USERS\MATEO\DOCUMENTS\OOP VJEZBE\OOP_VJEZBE\VJEZBA 4\ZADATAK 4\DEBUG\VC141.PDB
